ROOM:-> ClosingTime: 2021-01-22_14:26:05 CreationTime: 2021-01-22_14:20:19 Name: test3 Participants: 2
ROOM:-> ClosingTime: 2021-01-23_05:29:54 CreationTime: 2021-01-23_05:29:33 Name: tes4 Participants: 1
ROOM:-> ClosingTime: 2021-01-23_05:33:44 CreationTime: 2021-01-23_05:30:13 Name: tes4 Participants: 2
ROOM:-> ClosingTime: 2021-01-23_06:18:54 CreationTime: 2021-01-23_06:18:46 Name: overallpoliticiansdistortprimarily Participants: 1
ROOM:-> ClosingTime: 2021-01-23_06:20:29 CreationTime: 2021-01-23_06:18:09 Name: test3 Participants: 1
ROOM:-> ClosingTime: 2021-01-23_08:53:49 CreationTime: 2021-01-23_08:40:33 Name: testing_auth Participants: 1
